{
  "project_info": {
    "project_number": "541926645746",
    "project_id": "cricket-score-new-learn",
    "storage_bucket": "cricket-score-new-learn.appspot.com"
  },
  "client": [
    {
      "client_info": {
        "mobilesdk_app_id": "1:541926645746:android:76503e455e91d7e784556b",
        "android_client_info": {
          "package_name": "com.ltos.livecrkttv"
        }
      },
      "oauth_client": [
        {
          "client_id": "541926645746-j0jqfb00dngoito22gp7momphonpeod6.apps.googleusercontent.com",
          "client_type": 3
        }
      ],
      "api_key": [
        {
          "current_key": "AIzaSyAbQ4ysS08dc7fgrLPS6nXoN7eiO7qXQS0"
        }
      ],
      "services": {
        "appinvite_service": {
          "other_platform_oauth_client": [
            {
              "client_id": "541926645746-j0jqfb00dngoito22gp7momphonpeod6.apps.googleusercontent.com",
              "client_type": 3
            }
          ]
        }
      }
    }
  ],
  "configuration_version": "1"
}